{
    "segm1":{
	"endpoints":[4000,1820],
	"fit":"FitSplineSegm1"
    },
    "segm1nn":{
    "endpoints":[4000,1820],
    "fit":"FitSplineSegm1nn"
    },
    "segm2":{
	"endpoints":[2000,1500],
	"fit":"FitSplineSegm2"
    },
    "segm2r":{
	"endpoints":[2000,1500],
	"fit":"FitSplineSegm2r"
    },
    "segm2ext":{
	"endpoints":[2000,1425],
	"fit":"FitSplineSegm2ext"
    },
    "Rfile":"$extdata/FitSplineKDT.R"
}
